<?xml version="1.0" ?>
<message type="vehicle_states_reply">
  <body_info body_type="construction" collision="False" controllable="False" id="-200" obstacle="False" pitch="0.0" roll="0.0" signal_strength="-1.0" trailer="False" x="-0.6" y="-0.5" yaw="90.0" z="0.0"/>
  <body_info body_type="construction" collision="False" controllable="False" id="-201" obstacle="False" pitch="0.0" roll="0.0" signal_strength="-1.0" trailer="False" x="3.4" y="-0.2" yaw="90.0" z="0.0"/>
  <body_info body_type="truck" collision="False" controllable="False" id="-1" obstacle="False" pitch="0" roll="0" signal_strength="-1.0" trailer="False" x="2.07788404091" y="1.29962147247" yaw="88.4831563728" z="0"/>
  <body_info body_type="truck" collision="False" controllable="False" id="-2" obstacle="False" pitch="0" roll="0" signal_strength="-1.0" trailer="False" x="-1.38054185849" y="0.482287095889" yaw="-89.4910918603" z="0"/>
  <body_info body_type="truck" collision="False" controllable="False" id="-3" obstacle="False" pitch="0" roll="0" signal_strength="-1.0" trailer="False" x="2.61659897824" y="1.48461036747" yaw="-0.299626413827" z="0"/>
  <body_info body_type="truck" collision="False" controllable="False" id="-4" obstacle="False" pitch="0" roll="0" signal_strength="-1.0" trailer="False" x="3.55802002993" y="-1.42547742977" yaw="1.00719524698" z="0"/>
  <body_info body_type="truck" collision="False" controllable="False" id="-5" obstacle="False" pitch="0" roll="0" signal_strength="-1.0" trailer="False" x="-1.75888758554" y="1.58071659677" yaw="-179.429327548" z="0"/>
  <body_info body_type="truck" collision="False" controllable="False" id="-6" obstacle="False" pitch="0" roll="0" signal_strength="-1.0" trailer="False" x="0.364565241185" y="2.1619952492" yaw="0.523079835999" z="0"/>
  <body_info body_type="truck" collision="False" controllable="False" id="-7" obstacle="False" pitch="0" roll="0" signal_strength="-1.0" trailer="False" x="-2.95677535562" y="-1.48167440454" yaw="0.660914680623" z="0"/>
  <body_info body_type="truck" collision="True" controllable="False" id="-8" obstacle="False" pitch="0" roll="0" signal_strength="-1.0" trailer="False" x="3.17815652169" y="-1.43215569015" yaw="1.00719524698" z="0"/>
  <body_info body_type="truck" collision="False" controllable="False" id="-9" obstacle="False" pitch="0" roll="0" signal_strength="-1.0" trailer="False" x="4.27547153205" y="-0.950417239545" yaw="92.1161025809" z="0"/>
  <body_info body_type="truck" collision="False" controllable="False" id="-10" obstacle="False" pitch="0" roll="0" signal_strength="-1.0" trailer="False" x="-0.0845550919892" y="2.15789490675" yaw="0.523079835999" z="0"/>
</message>
