Obstacle
0 -0.020373 0.82807
1 -0.020373 0.22795
0 49.0838 97.6602
1 49.0838 58.3851
Obstacle
0 -0.042787 0.97969
1 -0.042787 0.37914
0 23.3717 -14.7996
1 23.3717 -33.514
Obstacle
0 -0.12038 0.89175
1 -0.12038 0.28742
0 8.3073 9.6532
1 8.3073 2.9593
Obstacle
1 -0.072893 0.37433
0 -0.072893 0.97592
1 13.7188 -7.9572
0 13.7188 3.0469
