<?xml version='1.0' encoding='UTF-8'?>
<osm version='0.6' upload='true' generator='JOSM'>
  <node id='-856' action='modify' visible='true' lat='59.15326815087' lon='17.65736693753' />
  <node id='-854' action='modify' visible='true' lat='59.15328780858' lon='17.65744004783' />
  <node id='-852' action='modify' visible='true' lat='59.15330746629' lon='17.65751048337' />
  <node id='-850' action='modify' visible='true' lat='59.1533289526' lon='17.65758805162' />
  <node id='-848' action='modify' visible='true' lat='59.15334906744' lon='17.65765670398' />
  <node id='-846' action='modify' visible='true' lat='59.15336598218' lon='17.65772803111' />
  <node id='-844' action='modify' visible='true' lat='59.15338472553' lon='17.65782075637' />
  <node id='-842' action='modify' visible='true' lat='59.15340346887' lon='17.65793398818' />
  <node id='-840' action='modify' visible='true' lat='59.15341809781' lon='17.65803652093' />
  <node id='-838' action='modify' visible='true' lat='59.1534281552' lon='17.65813905367' />
  <node id='-836' action='modify' visible='true' lat='59.15343592682' lon='17.65823534529' />
  <node id='-834' action='modify' visible='true' lat='59.15344369844' lon='17.6583405528' />
  <node id='-832' action='modify' visible='true' lat='59.15345009859' lon='17.65844219395' />
  <node id='-830' action='modify' visible='true' lat='59.15345192721' lon='17.65855542577' />
  <node id='-828' action='modify' visible='true' lat='59.15345604159' lon='17.65871502021' />
  <node id='-826' action='modify' visible='true' lat='59.15346107028' lon='17.6588380595' />
  <node id='-824' action='modify' visible='true' lat='59.15346335605' lon='17.65894059225' />
  <node id='-822' action='modify' visible='true' lat='59.15346792759' lon='17.65907254743' />
  <node id='-820' action='modify' visible='true' lat='59.15347249913' lon='17.65917151382' />
  <node id='-818' action='modify' visible='true' lat='59.15347707066' lon='17.65929276993' />
  <node id='-816' action='modify' visible='true' lat='59.15347798497' lon='17.65939262791' />
  <node id='-814' action='modify' visible='true' lat='59.15320083429' lon='17.65743723865' />
  <node id='-812' action='modify' visible='true' lat='59.15322045976' lon='17.65751022887' />
  <node id='-810' action='modify' visible='true' lat='59.15324034278' lon='17.65758147161' />
  <node id='-808' action='modify' visible='true' lat='59.15326220455' lon='17.65766039513' />
  <node id='-806' action='modify' visible='true' lat='59.15328114194' lon='17.65772502873' />
  <node id='-804' action='modify' visible='true' lat='59.15329575384' lon='17.65778664494' />
  <node id='-802' action='modify' visible='true' lat='59.15331280343' lon='17.65787099085' />
  <node id='-800' action='modify' visible='true' lat='59.15333032515' lon='17.65797684244' />
  <node id='-798' action='modify' visible='true' lat='59.15334369214' lon='17.65807053009' />
  <node id='-796' action='modify' visible='true' lat='59.15335292231' lon='17.65816462921' />
  <node id='-794' action='modify' visible='true' lat='59.15336042122' lon='17.65825754174' />
  <node id='-792' action='modify' visible='true' lat='59.15336800813' lon='17.6583602485' />
  <node id='-790' action='modify' visible='true' lat='59.15337388867' lon='17.65845363746' />
  <node id='-788' action='modify' visible='true' lat='59.15337563073' lon='17.65856150937' />
  <node id='-786' action='modify' visible='true' lat='59.15337983726' lon='17.65872467774' />
  <node id='-784' action='modify' visible='true' lat='59.15338484537' lon='17.65884721321' />
  <node id='-782' action='modify' visible='true' lat='59.15338711111' lon='17.65894884735' />
  <node id='-780' action='modify' visible='true' lat='59.15339180208' lon='17.6590842495' />
  <node id='-778' action='modify' visible='true' lat='59.15339639395' lon='17.65918365586' />
  <node id='-776' action='modify' visible='true' lat='59.1534007639' lon='17.65929956481' />
  <node id='-774' action='modify' visible='true' lat='59.15340166558' lon='17.6593980442' />
  <node id='-772' action='modify' visible='true' lat='59.15321393709' lon='17.65733788541' />
  <node id='-770' action='modify' visible='true' lat='59.15343990743' lon='17.65947808783' />
  <node id='-768' action='modify' visible='true' lat='59.15323251268' lon='17.65740415579' />
  <node id='-766' action='modify' visible='true' lat='59.15325215332' lon='17.65747720252' />
  <node id='-764' action='modify' visible='true' lat='59.15327193031' lon='17.6575480654' />
  <node id='-762' action='modify' visible='true' lat='59.15329361539' lon='17.65762635115' />
  <node id='-760' action='modify' visible='true' lat='59.15331310688' lon='17.65769287593' />
  <node id='-758' action='modify' visible='true' lat='59.15332880246' lon='17.65775906198' />
  <node id='-756' action='modify' visible='true' lat='59.15334664912' lon='17.65784735111' />
  <node id='-754' action='modify' visible='true' lat='59.15336474572' lon='17.65795667574' />
  <node id='-752' action='modify' visible='true' lat='59.15337870657' lon='17.65805452579' />
  <node id='-750' action='modify' visible='true' lat='59.15338832602' lon='17.65815259367' />
  <node id='-748' action='modify' visible='true' lat='59.15339595326' lon='17.65824709636' />
  <node id='-746' action='modify' visible='true' lat='59.15340362709' lon='17.65835097994' />
  <node id='-744' action='modify' visible='true' lat='59.15340975216' lon='17.65844825228' />
  <node id='-742' action='modify' visible='true' lat='59.15341153495' lon='17.6585586465' />
  <node id='-740' action='modify' visible='true' lat='59.15341569812' lon='17.65872013302' />
  <node id='-738' action='modify' visible='true' lat='59.15342071591' lon='17.65884290558' />
  <node id='-736' action='modify' visible='true' lat='59.15342299108' lon='17.6589449626' />
  <node id='-734' action='modify' visible='true' lat='59.15342762584' lon='17.65907874265' />
  <node id='-732' action='modify' visible='true' lat='59.15343220815' lon='17.65917794196' />
  <node id='-730' action='modify' visible='true' lat='59.15343667296' lon='17.65929636722' />
  <node id='-728' action='modify' visible='true' lat='59.15343758058' lon='17.65939549536' />
  <node id='-726' action='modify' visible='true' lat='59.15355460654' lon='17.65964020077' />
  <node id='-724' action='modify' visible='true' lat='59.153596953' lon='17.65963515719' />
  <node id='-722' action='modify' visible='true' lat='59.15363800639' lon='17.6596301136' />
  <node id='-720' action='modify' visible='true' lat='59.15367518068' lon='17.65962570045' />
  <node id='-718' action='modify' visible='true' lat='59.15371429445' lon='17.65961876552' />
  <node id='-716' action='modify' visible='true' lat='59.15374952913' lon='17.65961687417' />
  <node id='-714' action='modify' visible='true' lat='59.15379284511' lon='17.65960930879' />
  <node id='-712' action='modify' visible='true' lat='59.15383713079' lon='17.65960363475' />
  <node id='-710' action='modify' visible='true' lat='59.15388044666' lon='17.65959733026' />
  <node id='-708' action='modify' visible='true' lat='59.15391568116' lon='17.65959291712' />
  <node id='-706' action='modify' visible='true' lat='59.15394800637' lon='17.65958976488' />
  <node id='-704' action='modify' visible='true' lat='59.15399487786' lon='17.65958282994' />
  <node id='-702' action='modify' visible='true' lat='59.15404595156' lon='17.65957463411' />
  <node id='-700' action='modify' visible='true' lat='59.15411124819' lon='17.65956769918' />
  <node id='-698' action='modify' visible='true' lat='59.15416135196' lon='17.6595563511' />
  <node id='-696' action='modify' visible='true' lat='59.15418785844' lon='17.65955130751' />
  <node id='-694' action='modify' visible='true' lat='59.15419091136' lon='17.65961233845' />
  <node id='-692' action='modify' visible='true' lat='59.15359889959' lon='17.65969636028' />
  <node id='-690' action='modify' visible='true' lat='59.15363994986' lon='17.65969131707' />
  <node id='-688' action='modify' visible='true' lat='59.15367755964' lon='17.65968685223' />
  <node id='-686' action='modify' visible='true' lat='59.1537161521' lon='17.65968000973' />
  <node id='-684' action='modify' visible='true' lat='59.1537513656' lon='17.65967811952' />
  <node id='-682' action='modify' visible='true' lat='59.15379527818' lon='17.65967044993' />
  <node id='-680' action='modify' visible='true' lat='59.15383933128' lon='17.65966480569' />
  <node id='-678' action='modify' visible='true' lat='59.15388262415' lon='17.65965850455' />
  <node id='-676' action='modify' visible='true' lat='59.15391747381' lon='17.65965413962' />
  <node id='-674' action='modify' visible='true' lat='59.15394998092' lon='17.65965096963' />
  <node id='-672' action='modify' visible='true' lat='59.15399735617' lon='17.65964396016' />
  <node id='-670' action='modify' visible='true' lat='59.15404809588' lon='17.65963581793' />
  <node id='-668' action='modify' visible='true' lat='59.15411391891' lon='17.65962882708' />
  <node id='-666' action='modify' visible='true' lat='59.15416469212' lon='17.65961732738' />
  <node id='-664' action='modify' visible='true' lat='59.15359889959' lon='17.65969636028' />
  <node id='-662' action='modify' visible='true' lat='59.15363994986' lon='17.65969131707' />
  <node id='-660' action='modify' visible='true' lat='59.15367755964' lon='17.65968685223' />
  <node id='-658' action='modify' visible='true' lat='59.1537161521' lon='17.65968000973' />
  <node id='-656' action='modify' visible='true' lat='59.1537513656' lon='17.65967811952' />
  <node id='-654' action='modify' visible='true' lat='59.15379527818' lon='17.65967044993' />
  <node id='-652' action='modify' visible='true' lat='59.15383933128' lon='17.65966480569' />
  <node id='-650' action='modify' visible='true' lat='59.15388262415' lon='17.65965850455' />
  <node id='-648' action='modify' visible='true' lat='59.15391747381' lon='17.65965413962' />
  <node id='-646' action='modify' visible='true' lat='59.15394998092' lon='17.65965096963' />
  <node id='-644' action='modify' visible='true' lat='59.15399735617' lon='17.65964396016' />
  <node id='-642' action='modify' visible='true' lat='59.15404809588' lon='17.65963581793' />
  <node id='-640' action='modify' visible='true' lat='59.15411391891' lon='17.65962882708' />
  <node id='-638' action='modify' visible='true' lat='59.15416469212' lon='17.65961732738' />
  <node id='-636' action='modify' visible='true' lat='59.15355542791' lon='17.65966955276' />
  <node id='-634' action='modify' visible='true' lat='59.15359778725' lon='17.65966450764' />
  <node id='-632' action='modify' visible='true' lat='59.15363883931' lon='17.65965946421' />
  <node id='-630' action='modify' visible='true' lat='59.15367620023' lon='17.65965502892' />
  <node id='-628' action='modify' visible='true' lat='59.15371509058' lon='17.65964813359' />
  <node id='-626' action='modify' visible='true' lat='59.15375031619' lon='17.65964624273' />
  <node id='-624' action='modify' visible='true' lat='59.15379388785' lon='17.65963863269' />
  <node id='-622' action='modify' visible='true' lat='59.15383807386' lon='17.65963297143' />
  <node id='-620' action='modify' visible='true' lat='59.15388137987' lon='17.65962666837' />
  <node id='-618' action='modify' visible='true' lat='59.15391644944' lon='17.65962227589' />
  <node id='-616' action='modify' visible='true' lat='59.15394885261' lon='17.65961911605' />
  <node id='-614' action='modify' visible='true' lat='59.15399594' lon='17.65961214917' />
  <node id='-612' action='modify' visible='true' lat='59.15404687055' lon='17.6596039763' />
  <node id='-610' action='modify' visible='true' lat='59.15411239279' lon='17.65959701741' />
  <node id='-608' action='modify' visible='true' lat='59.15416278346' lon='17.65958560435' />
  <node id='-606' action='modify' visible='true' lat='59.15429142232' lon='17.65940361221' />
  <node id='-604' action='modify' visible='true' lat='59.15432342229' lon='17.6592988505' />
  <node id='-602' action='modify' visible='true' lat='59.15434719367' lon='17.65922306543' />
  <node id='-600' action='modify' visible='true' lat='59.1543759936' lon='17.65912187007' />
  <node id='-598' action='modify' visible='true' lat='59.15440822206' lon='17.65900997564' />
  <node id='-596' action='modify' visible='true' lat='59.15443565052' lon='17.65891323822' />
  <node id='-594' action='modify' visible='true' lat='59.15445759326' lon='17.65883611577' />
  <node id='-592' action='modify' visible='true' lat='59.15448479311' lon='17.65874205312' />
  <node id='-590' action='modify' visible='true' lat='59.15451085008' lon='17.65864754468' />
  <node id='-588' action='modify' visible='true' lat='59.15453759274' lon='17.6585476867' />
  <node id='-586' action='modify' visible='true' lat='59.1545604497' lon='17.65846075677' />
  <node id='-584' action='modify' visible='true' lat='59.15458399235' lon='17.65837427263' />
  <node id='-582' action='modify' visible='true' lat='59.15461142067' lon='17.65827664362' />
  <node id='-580' action='modify' visible='true' lat='59.15462856335' lon='17.65822091931' />
  <node id='-578' action='modify' visible='true' lat='59.15466467724' lon='17.65810055478' />
  <node id='-576' action='modify' visible='true' lat='59.15469439118' lon='17.65799668465' />
  <node id='-574' action='modify' visible='true' lat='59.15473393353' lon='17.65786294629' />
  <node id='-572' action='modify' visible='true' lat='59.15476410454' lon='17.65774971448' />
  <node id='-570' action='modify' visible='true' lat='59.15478718992' lon='17.6576667967' />
  <node id='-568' action='modify' visible='true' lat='59.15482650359' lon='17.65752681721' />
  <node id='-566' action='modify' visible='true' lat='59.1548603316' lon='17.65741804335' />
  <node id='-564' action='modify' visible='true' lat='59.15488684542' lon='17.65731863116' />
  <node id='-562' action='modify' visible='true' lat='59.15491153069' lon='17.65723348441' />
  <node id='-560' action='modify' visible='true' lat='59.15493187316' lon='17.65715903672' />
  <node id='-558' action='modify' visible='true' lat='59.15495107278' lon='17.65708949277' />
  <node id='-556' action='modify' visible='true' lat='59.15497758654' lon='17.65699543013' />
  <node id='-554' action='modify' visible='true' lat='59.15432219699' lon='17.65943979403' />
  <node id='-552' action='modify' visible='true' lat='59.15435418463' lon='17.65933507256' />
  <node id='-550' action='modify' visible='true' lat='59.15437824259' lon='17.65925837381' />
  <node id='-548' action='modify' visible='true' lat='59.15440736694' lon='17.65915603843' />
  <node id='-546' action='modify' visible='true' lat='59.15443960931' lon='17.65904409559' />
  <node id='-544' action='modify' visible='true' lat='59.15446708308' lon='17.65894719828' />
  <node id='-542' action='modify' visible='true' lat='59.1544889528' lon='17.6588703324' />
  <node id='-540' action='modify' visible='true' lat='59.15451626939' lon='17.65877586596' />
  <node id='-538' action='modify' visible='true' lat='59.15454260007' lon='17.65868036469' />
  <node id='-536' action='modify' visible='true' lat='59.15456950513' lon='17.6585799002' />
  <node id='-534' action='modify' visible='true' lat='59.15459230683' lon='17.65849318036' />
  <node id='-532' action='modify' visible='true' lat='59.1546156185' lon='17.65840754465' />
  <node id='-530' action='modify' visible='true' lat='59.1546425949' lon='17.65831152414' />
  <node id='-528' action='modify' visible='true' lat='59.15465947693' lon='17.65825664703' />
  <node id='-526' action='modify' visible='true' lat='59.15469587665' lon='17.65813532979' />
  <node id='-524' action='modify' visible='true' lat='59.15472564631' lon='17.65803126475' />
  <node id='-522' action='modify' visible='true' lat='59.15476545478' lon='17.65789662622' />
  <node id='-520' action='modify' visible='true' lat='59.15479583811' lon='17.65778259745' />
  <node id='-518' action='modify' visible='true' lat='59.15481873606' lon='17.65770035281' />
  <node id='-516' action='modify' visible='true' lat='59.15485763735' lon='17.65756184151' />
  <node id='-514' action='modify' visible='true' lat='59.15489166552' lon='17.65745242391' />
  <node id='-512' action='modify' visible='true' lat='59.15491843322' lon='17.65735205974' />
  <node id='-510' action='modify' visible='true' lat='59.15494303014' lon='17.65726721766' />
  <node id='-508' action='modify' visible='true' lat='59.15496354736' lon='17.65719213035' />
  <node id='-506' action='modify' visible='true' lat='59.15498263611' lon='17.65712298794' />
  <node id='-504' action='modify' visible='true' lat='59.15500914697' lon='17.65702893547' />
  <node id='-502' action='modify' visible='true' lat='59.15428710386' lon='17.65948471577' />
  <node id='-500' action='modify' visible='true' lat='59.15430680966' lon='17.65942170313' />
  <node id='-498' action='modify' visible='true' lat='59.15433880347' lon='17.65931696153' />
  <node id='-496' action='modify' visible='true' lat='59.15436271814' lon='17.65924071962' />
  <node id='-494' action='modify' visible='true' lat='59.15439168028' lon='17.65913895425' />
  <node id='-492' action='modify' visible='true' lat='59.15442391569' lon='17.65902703562' />
  <node id='-490' action='modify' visible='true' lat='59.1544513668' lon='17.65893021826' />
  <node id='-488' action='modify' visible='true' lat='59.15447327304' lon='17.65885322409' />
  <node id='-486' action='modify' visible='true' lat='59.15450053125' lon='17.65875895955' />
  <node id='-484' action='modify' visible='true' lat='59.15452672508' lon='17.65866395469' />
  <node id='-482' action='modify' visible='true' lat='59.15455354895' lon='17.65856379346' />
  <node id='-480' action='modify' visible='true' lat='59.15457637827' lon='17.65847696857' />
  <node id='-478' action='modify' visible='true' lat='59.15459980544' lon='17.65839090864' />
  <node id='-476' action='modify' visible='true' lat='59.15462700779' lon='17.65829408389' />
  <node id='-474' action='modify' visible='true' lat='59.15464402015' lon='17.65823878318' />
  <node id='-472' action='modify' visible='true' lat='59.15468027695' lon='17.65811794229' />
  <node id='-470' action='modify' visible='true' lat='59.15471001875' lon='17.6580139747' />
  <node id='-468' action='modify' visible='true' lat='59.15474969416' lon='17.65787978626' />
  <node id='-466' action='modify' visible='true' lat='59.15477997133' lon='17.65776615597' />
  <node id='-464' action='modify' visible='true' lat='59.15480296299' lon='17.65768357476' />
  <node id='-462' action='modify' visible='true' lat='59.15484207048' lon='17.65754432936' />
  <node id='-460' action='modify' visible='true' lat='59.15487599857' lon='17.65743523363' />
  <node id='-458' action='modify' visible='true' lat='59.15490263933' lon='17.65733534546' />
  <node id='-456' action='modify' visible='true' lat='59.15492728042' lon='17.65725035104' />
  <node id='-454' action='modify' visible='true' lat='59.15494771027' lon='17.65717558354' />
  <node id='-452' action='modify' visible='true' lat='59.15496685446' lon='17.65710624036' />
  <node id='-450' action='modify' visible='true' lat='59.15499336676' lon='17.6570121828' />
  <node id='-448' action='modify' visible='true' lat='59.15493891952' lon='17.65674452429' />
  <node id='-446' action='modify' visible='true' lat='59.15490669156' lon='17.65674942803' />
  <node id='-444' action='modify' visible='true' lat='59.15487720638' lon='17.65675477756' />
  <node id='-442' action='modify' visible='true' lat='59.15484474979' lon='17.65676191027' />
  <node id='-440' action='modify' visible='true' lat='59.15481640739' lon='17.65676948878' />
  <node id='-438' action='modify' visible='true' lat='59.1547878364' lon='17.65677171775' />
  <node id='-436' action='modify' visible='true' lat='59.15475812255' lon='17.65677706729' />
  <node id='-434' action='modify' visible='true' lat='59.15472429444' lon='17.6567842' />
  <node id='-432' action='modify' visible='true' lat='59.15469275198' lon='17.65679356169' />
  <node id='-430' action='modify' visible='true' lat='59.15466395232' lon='17.65679846543' />
  <node id='-428' action='modify' visible='true' lat='59.15463263838' lon='17.65680426075' />
  <node id='-426' action='modify' visible='true' lat='59.15459812444' lon='17.65681139347' />
  <node id='-424' action='modify' visible='true' lat='59.1545693247' lon='17.6568171888' />
  <node id='-422' action='modify' visible='true' lat='59.1545354964' lon='17.65682253833' />
  <node id='-420' action='modify' visible='true' lat='59.15450395377' lon='17.65682833366' />
  <node id='-418' action='modify' visible='true' lat='59.15447286825' lon='17.65683412899' />
  <node id='-416' action='modify' visible='true' lat='59.15443309702' lon='17.65683858693' />
  <node id='-414' action='modify' visible='true' lat='59.15439675432' lon='17.65684661124' />
  <node id='-412' action='modify' visible='true' lat='59.1543530973' lon='17.6568573103' />
  <node id='-410' action='modify' visible='true' lat='59.15431264023' lon='17.65686310563' />
  <node id='-408' action='modify' visible='true' lat='59.1542689831' lon='17.65687202152' />
  <node id='-406' action='modify' visible='true' lat='59.1542125259' lon='17.65688049162' />
  <node id='-404' action='modify' visible='true' lat='59.15416612579' lon='17.65688851592' />
  <node id='-402' action='modify' visible='true' lat='59.15412292562' lon='17.65689475705' />
  <node id='-400' action='modify' visible='true' lat='59.15407583967' lon='17.65690367294' />
  <node id='-398' action='modify' visible='true' lat='59.15403378225' lon='17.65691348042' />
  <node id='-396' action='modify' visible='true' lat='59.15397206748' lon='17.65692195051' />
  <node id='-394' action='modify' visible='true' lat='59.15391332405' lon='17.65693710753' />
  <node id='-392' action='modify' visible='true' lat='59.15386418064' lon='17.65695048136' />
  <node id='-390' action='modify' visible='true' lat='59.15381526573' lon='17.6569553851' />
  <node id='-388' action='modify' visible='true' lat='59.15375423628' lon='17.65696965053' />
  <node id='-386' action='modify' visible='true' lat='59.15370234974' lon='17.65697901221' />
  <node id='-384' action='modify' visible='true' lat='59.15364109152' lon='17.65699595241' />
  <node id='-382' action='modify' visible='true' lat='59.15357183302' lon='17.65700353091' />
  <node id='-380' action='modify' visible='true' lat='59.15351674613' lon='17.65701200101' />
  <node id='-378' action='modify' visible='true' lat='59.15345937338' lon='17.65702626643' />
  <node id='-376' action='modify' visible='true' lat='59.15340108623' lon='17.65703651971' />
  <node id='-374' action='modify' visible='true' lat='59.15335674221' lon='17.6570449898' />
  <node id='-372' action='modify' visible='true' lat='59.15330416933' lon='17.65705479728' />
  <node id='-370' action='modify' visible='true' lat='59.1532806258' lon='17.65705791785' />
  <node id='-368' action='modify' visible='true' lat='59.15497248325' lon='17.65682741703' />
  <node id='-366' action='modify' visible='true' lat='59.15494236266' lon='17.65683186755' />
  <node id='-364' action='modify' visible='true' lat='59.15491051853' lon='17.65683671289' />
  <node id='-362' action='modify' visible='true' lat='59.15488180138' lon='17.65684192308' />
  <node id='-360' action='modify' visible='true' lat='59.15485031539' lon='17.65684884249' />
  <node id='-358' action='modify' visible='true' lat='59.15482036443' lon='17.65685685111' />
  <node id='-356' action='modify' visible='true' lat='59.15479080021' lon='17.65685915757' />
  <node id='-354' action='modify' visible='true' lat='59.15476260081' lon='17.65686423445' />
  <node id='-352' action='modify' visible='true' lat='59.15473008947' lon='17.65687108952' />
  <node id='-350' action='modify' visible='true' lat='59.15469808913' lon='17.65688058711' />
  <node id='-348' action='modify' visible='true' lat='59.154668027' lon='17.65688570581' />
  <node id='-346' action='modify' visible='true' lat='59.15463712634' lon='17.65689142465' />
  <node id='-344' action='modify' visible='true' lat='59.15460279562' lon='17.6568985195' />
  <node id='-342' action='modify' visible='true' lat='59.15457344493' lon='17.6569044257' />
  <node id='-340' action='modify' visible='true' lat='59.15453941774' lon='17.65690980669' />
  <node id='-338' action='modify' visible='true' lat='59.15450819696' lon='17.65691554288' />
  <node id='-336' action='modify' visible='true' lat='59.15447629496' lon='17.65692149043' />
  <node id='-334' action='modify' visible='true' lat='59.15443691473' lon='17.65692590455' />
  <node id='-332' action='modify' visible='true' lat='59.15440208065' lon='17.65693359575' />
  <node id='-330' action='modify' visible='true' lat='59.15435754517' lon='17.65694451011' />
  <node id='-328' action='modify' visible='true' lat='59.154316625' lon='17.65695037178' />
  <node id='-326' action='modify' visible='true' lat='59.15427304512' lon='17.65695927189' />
  <node id='-324' action='modify' visible='true' lat='59.15421623201' lon='17.65696779539' />
  <node id='-322' action='modify' visible='true' lat='59.15416976853' lon='17.65697583065' />
  <node id='-320' action='modify' visible='true' lat='59.15412675529' lon='17.65698204477' />
  <node id='-318' action='modify' visible='true' lat='59.15408067663' lon='17.65699076992' />
  <node id='-316' action='modify' visible='true' lat='59.15403802744' lon='17.6570007154' />
  <node id='-314' action='modify' visible='true' lat='59.15397659363' lon='17.65700914694' />
  <node id='-312' action='modify' visible='true' lat='59.15391937316' lon='17.657023911' />
  <node id='-310' action='modify' visible='true' lat='59.15386844523' lon='17.65703777047' />
  <node id='-308' action='modify' visible='true' lat='59.15381909548' lon='17.65704271781' />
  <node id='-306' action='modify' visible='true' lat='59.15375897842' lon='17.65705676997' />
  <node id='-304' action='modify' visible='true' lat='59.15370757444' lon='17.65706604459' />
  <node id='-302' action='modify' visible='true' lat='59.15364551034' lon='17.65708320764' />
  <node id='-300' action='modify' visible='true' lat='59.15357485655' lon='17.65709093882' />
  <node id='-298' action='modify' visible='true' lat='59.1535213541' lon='17.6570991653' />
  <node id='-296' action='modify' visible='true' lat='59.15346423271' lon='17.65711336823' />
  <node id='-294' action='modify' visible='true' lat='59.15340529281' lon='17.65712373633' />
  <node id='-292' action='modify' visible='true' lat='59.1533610697' lon='17.65713218333' />
  <node id='-290' action='modify' visible='true' lat='59.15330783124' lon='17.65714211498' />
  <node id='-288' action='modify' visible='true' lat='59.15497078682' lon='17.65678374217' />
  <node id='-286' action='modify' visible='true' lat='59.1532821486' lon='17.65710161802' />
  <node id='-284' action='modify' visible='true' lat='59.15494064111' lon='17.6567881964' />
  <node id='-282' action='modify' visible='true' lat='59.15490860507' lon='17.65679307094' />
  <node id='-280' action='modify' visible='true' lat='59.1548795039' lon='17.6567983508' />
  <node id='-278' action='modify' visible='true' lat='59.15484753262' lon='17.65680537686' />
  <node id='-276' action='modify' visible='true' lat='59.15481838594' lon='17.65681317043' />
  <node id='-274' action='modify' visible='true' lat='59.15478931832' lon='17.65681543814' />
  <node id='-272' action='modify' visible='true' lat='59.1547603617' lon='17.65682065135' />
  <node id='-270' action='modify' visible='true' lat='59.15472719199' lon='17.65682764524' />
  <node id='-268' action='modify' visible='true' lat='59.15469542058' lon='17.65683707488' />
  <node id='-266' action='modify' visible='true' lat='59.15466598968' lon='17.6568420861' />
  <node id='-264' action='modify' visible='true' lat='59.15463488239' lon='17.65684784318' />
  <node id='-262' action='modify' visible='true' lat='59.15460046005' lon='17.65685495696' />
  <node id='-260' action='modify' visible='true' lat='59.15457138484' lon='17.65686080773' />
  <node id='-258' action='modify' visible='true' lat='59.15453745709' lon='17.65686617299' />
  <node id='-256' action='modify' visible='true' lat='59.15450607538' lon='17.65687193875' />
  <node id='-254' action='modify' visible='true' lat='59.15447458162' lon='17.65687781019' />
  <node id='-252' action='modify' visible='true' lat='59.1544350059' lon='17.65688224622' />
  <node id='-250' action='modify' visible='true' lat='59.15439941751' lon='17.65689010397' />
  <node id='-248' action='modify' visible='true' lat='59.15435532126' lon='17.65690091069' />
  <node id='-246' action='modify' visible='true' lat='59.15431463263' lon='17.65690673919' />
  <node id='-244' action='modify' visible='true' lat='59.15427101413' lon='17.65691564719' />
  <node id='-242' action='modify' visible='true' lat='59.15421437898' lon='17.65692414398' />
  <node id='-240' action='modify' visible='true' lat='59.15416794718' lon='17.65693217377' />
  <node id='-238' action='modify' visible='true' lat='59.15412484048' lon='17.65693840139' />
  <node id='-236' action='modify' visible='true' lat='59.15407825817' lon='17.65694722191' />
  <node id='-234' action='modify' visible='true' lat='59.15403590487' lon='17.65695709839' />
  <node id='-232' action='modify' visible='true' lat='59.15397433058' lon='17.65696554921' />
  <node id='-230' action='modify' visible='true' lat='59.15391634864' lon='17.65698050974' />
  <node id='-228' action='modify' visible='true' lat='59.15386631295' lon='17.6569941264' />
  <node id='-226' action='modify' visible='true' lat='59.15381718063' lon='17.65699905194' />
  <node id='-224' action='modify' visible='true' lat='59.15375660738' lon='17.65701321073' />
  <node id='-222' action='modify' visible='true' lat='59.15370496212' lon='17.65702252888' />
  <node id='-220' action='modify' visible='true' lat='59.15364330095' lon='17.6570395805' />
  <node id='-218' action='modify' visible='true' lat='59.1535733448' lon='17.65704723535' />
  <node id='-216' action='modify' visible='true' lat='59.15351905014' lon='17.65705558363' />
  <node id='-214' action='modify' visible='true' lat='59.15346180307' lon='17.65706981781' />
  <node id='-212' action='modify' visible='true' lat='59.15340318954' lon='17.6570801285' />
  <node id='-210' action='modify' visible='true' lat='59.15335890598' lon='17.65708858705' />
  <node id='-208' action='modify' visible='true' lat='59.15330600031' lon='17.65709845661' />
  <node id='-206' action='modify' visible='true' lat='59.15498452163' lon='17.65682597909' />
  <node id='-204' action='modify' visible='true' lat='59.15499615835' lon='17.65682897372' />
  <node id='-202' action='modify' visible='true' lat='59.15500593642' lon='17.6568390609' />
  <node id='-200' action='modify' visible='true' lat='59.15500868397' lon='17.65685860481' />
  <node id='-198' action='modify' visible='true' lat='59.15500634047' lon='17.65688035529' />
  <node id='-196' action='modify' visible='true' lat='59.15500278481' lon='17.65690005681' />
  <node id='-194' action='modify' visible='true' lat='59.15500011806' lon='17.65691361145' />
  <node id='-192' action='modify' visible='true' lat='59.15501689186' lon='17.65692616508' />
  <node id='-190' action='modify' visible='true' lat='59.15498996246' lon='17.65678405067' />
  <node id='-188' action='modify' visible='true' lat='59.15500582818' lon='17.65679316516' />
  <node id='-186' action='modify' visible='true' lat='59.15502120774' lon='17.65681958702' />
  <node id='-184' action='modify' visible='true' lat='59.15502716016' lon='17.65685830271' />
  <node id='-182' action='modify' visible='true' lat='59.15502367979' lon='17.65688981661' />
  <node id='-180' action='modify' visible='true' lat='59.15501964853' lon='17.65691215338' />
  <node id='-178' action='modify' visible='true' lat='59.15497036767' lon='17.6567398992' />
  <node id='-176' action='modify' visible='true' lat='59.15503196865' lon='17.65694644171' />
  <node id='-174' action='modify' visible='true' lat='59.15499330221' lon='17.65674212224' />
  <node id='-172' action='modify' visible='true' lat='59.15501630611' lon='17.65675278583' />
  <node id='-170' action='modify' visible='true' lat='59.15503146882' lon='17.65677473758' />
  <node id='-168' action='modify' visible='true' lat='59.15504515148' lon='17.65682411401' />
  <node id='-166' action='modify' visible='true' lat='59.15504651422' lon='17.65687201103' />
  <node id='-164' action='modify' visible='true' lat='59.15504184574' lon='17.65690801591' />
  <node id='-162' action='modify' visible='true' lat='59.15427098843' lon='17.65947102534' />
  <node id='-160' action='modify' visible='true' lat='59.15425750271' lon='17.65950133937' />
  <node id='-158' action='modify' visible='true' lat='59.15424561699' lon='17.65951917115' />
  <node id='-156' action='modify' visible='true' lat='59.15422801697' lon='17.65953655713' />
  <node id='-154' action='modify' visible='true' lat='59.15421201695' lon='17.65954458144' />
  <node id='-152' action='modify' visible='true' lat='59.15419921692' lon='17.65954814779' />
  <node id='-150' action='modify' visible='true' lat='59.15419236577' lon='17.65958042088' />
  <node id='-148' action='modify' visible='true' lat='59.15426931759' lon='17.65952473593' />
  <node id='-146' action='modify' visible='true' lat='59.15425523682' lon='17.6595453808' />
  <node id='-144' action='modify' visible='true' lat='59.15423735935' lon='17.65956151822' />
  <node id='-142' action='modify' visible='true' lat='59.15421873513' lon='17.65957253352' />
  <node id='-140' action='modify' visible='true' lat='59.15420340466' lon='17.65957817413' />
  <node id='-138' action='modify' visible='true' lat='59.15430167198' lon='17.65950469392' />
  <node id='-136' action='modify' visible='true' lat='59.15428433247' lon='17.65954367456' />
  <node id='-134' action='modify' visible='true' lat='59.15426417093' lon='17.65957448812' />
  <node id='-132' action='modify' visible='true' lat='59.15424075886' lon='17.6595949494' />
  <node id='-130' action='modify' visible='true' lat='59.15421939616' lon='17.65960694962' />
  <node id='-128' action='modify' visible='true' lat='59.15420644955' lon='17.65961020655' />
  <node id='-126' action='modify' visible='true' lat='59.15354075768' lon='17.65963930734' />
  <node id='-124' action='modify' visible='true' lat='59.15353122164' lon='17.65963773122' />
  <node id='-122' action='modify' visible='true' lat='59.15352039256' lon='17.65963678554' />
  <node id='-120' action='modify' visible='true' lat='59.15350956349' lon='17.65963300285' />
  <node id='-118' action='modify' visible='true' lat='59.15350148208' lon='17.6596232309' />
  <node id='-116' action='modify' visible='true' lat='59.15348968323' lon='17.65960431744' />
  <node id='-114' action='modify' visible='true' lat='59.15348289485' lon='17.65957216456' />
  <node id='-112' action='modify' visible='true' lat='59.15348063206' lon='17.65953969645' />
  <node id='-110' action='modify' visible='true' lat='59.15347966229' lon='17.65951069581' />
  <node id='-108' action='modify' visible='true' lat='59.15348047043' lon='17.6594769668' />
  <node id='-106' action='modify' visible='true' lat='59.1535396745' lon='17.65967056446' />
  <node id='-104' action='modify' visible='true' lat='59.15353006078' lon='17.65967270476' />
  <node id='-102' action='modify' visible='true' lat='59.1535145192' lon='17.65967483855' />
  <node id='-100' action='modify' visible='true' lat='59.15349848974' lon='17.65967198695' />
  <node id='-98' action='modify' visible='true' lat='59.15348873545' lon='17.65966313005' />
  <node id='-96' action='modify' visible='true' lat='59.15347187928' lon='17.6596421897' />
  <node id='-94' action='modify' visible='true' lat='59.15345893794' lon='17.65962043173' />
  <node id='-92' action='modify' visible='true' lat='59.1534481982' lon='17.65958102749' />
  <node id='-90' action='modify' visible='true' lat='59.15344130345' lon='17.65952299773' />
  <node id='-88' action='modify' visible='true' lat='59.15355586988' lon='17.6597037129' />
  <node id='-86' action='modify' visible='true' lat='59.15340416985' lon='17.65949134819' />
  <node id='-84' action='modify' visible='true' lat='59.15353826807' lon='17.6597062347' />
  <node id='-82' action='modify' visible='true' lat='59.15352889993' lon='17.65970767829' />
  <node id='-80' action='modify' visible='true' lat='59.15351155515' lon='17.65971036974' />
  <node id='-78' action='modify' visible='true' lat='59.15348418344' lon='17.65970592743' />
  <node id='-76' action='modify' visible='true' lat='59.15346241205' lon='17.659692942' />
  <node id='-74' action='modify' visible='true' lat='59.15344470089' lon='17.65967943151' />
  <node id='-72' action='modify' visible='true' lat='59.15343045542' lon='17.65966050307' />
  <node id='-70' action='modify' visible='true' lat='59.15341867364' lon='17.65962424987' />
  <node id='-68' action='modify' visible='true' lat='59.15340811669' lon='17.65956177849' />
  <node id='-66' action='modify' visible='true' lat='59.15328114576' lon='17.65714501115' />
  <node id='-64' action='modify' visible='true' lat='59.15327112475' lon='17.65714627204' />
  <node id='-62' action='modify' visible='true' lat='59.15326158863' lon='17.65714910906' />
  <node id='-60' action='modify' visible='true' lat='59.15325059784' lon='17.65716077236' />
  <node id='-58' action='modify' visible='true' lat='59.15324348616' lon='17.65717747925' />
  <node id='-56' action='modify' visible='true' lat='59.15323669773' lon='17.65719702316' />
  <node id='-54' action='modify' visible='true' lat='59.15323524306' lon='17.65721971931' />
  <node id='-52' action='modify' visible='true' lat='59.1532376675' lon='17.65724651338' />
  <node id='-50' action='modify' visible='true' lat='59.15324090009' lon='17.65726952476' />
  <node id='-48' action='modify' visible='true' lat='59.15324494082' lon='17.6572868621' />
  <node id='-46' action='modify' visible='true' lat='59.15324817341' lon='17.65729757973' />
  <node id='-44' action='modify' visible='true' lat='59.15318149705' lon='17.65736689684' />
  <node id='-42' action='modify' visible='true' lat='59.15326628312' lon='17.65705910025' />
  <node id='-40' action='modify' visible='true' lat='59.15323620562' lon='17.65706482667' />
  <node id='-38' action='modify' visible='true' lat='59.15321686371' lon='17.65708209785' />
  <node id='-36' action='modify' visible='true' lat='59.15320025486' lon='17.65711693169' />
  <node id='-34' action='modify' visible='true' lat='59.15318586914' lon='17.65715678703' />
  <node id='-32' action='modify' visible='true' lat='59.1531746417' lon='17.65720587137' />
  <node id='-30' action='modify' visible='true' lat='59.1531705227' lon='17.65724398926' />
  <node id='-28' action='modify' visible='true' lat='59.15317266676' lon='17.65728301979' />
  <node id='-26' action='modify' visible='true' lat='59.15317577362' lon='17.65732131594' />
  <node id='-24' action='modify' visible='true' lat='59.15326870393' lon='17.65710268614' />
  <node id='-22' action='modify' visible='true' lat='59.1532543117' lon='17.65710696786' />
  <node id='-20' action='modify' visible='true' lat='59.1532360744' lon='17.65712632107' />
  <node id='-18' action='modify' visible='true' lat='59.15322550717' lon='17.65715114577' />
  <node id='-16' action='modify' visible='true' lat='59.15321508173' lon='17.65718116062' />
  <node id='-14' action='modify' visible='true' lat='59.15320930638' lon='17.65721768132' />
  <node id='-12' action='modify' visible='true' lat='59.15320845911' lon='17.65725297432' />
  <node id='-10' action='modify' visible='true' lat='59.15320856136' lon='17.65728320721' />
  <node id='-8' action='modify' visible='true' lat='59.15320979153' lon='17.65730992067' />
  <way id='-906' action='modify' visible='true'>
    <nd ref='-108' />
    <nd ref='-816' />
    <nd ref='-818' />
    <nd ref='-820' />
    <nd ref='-822' />
    <nd ref='-824' />
    <nd ref='-826' />
    <nd ref='-828' />
    <nd ref='-830' />
    <nd ref='-832' />
    <nd ref='-834' />
    <nd ref='-836' />
    <nd ref='-838' />
    <nd ref='-840' />
    <nd ref='-842' />
    <nd ref='-844' />
    <nd ref='-846' />
    <nd ref='-848' />
    <nd ref='-850' />
    <nd ref='-852' />
    <nd ref='-854' />
    <nd ref='-856' />
    <nd ref='-46' />
    <tag k='line_type' v='exterior' />
  </way>
  <way id='-904' action='modify' visible='true'>
    <nd ref='-44' />
    <nd ref='-814' />
    <nd ref='-812' />
    <nd ref='-810' />
    <nd ref='-808' />
    <nd ref='-806' />
    <nd ref='-804' />
    <nd ref='-802' />
    <nd ref='-800' />
    <nd ref='-798' />
    <nd ref='-796' />
    <nd ref='-794' />
    <nd ref='-792' />
    <nd ref='-790' />
    <nd ref='-788' />
    <nd ref='-786' />
    <nd ref='-784' />
    <nd ref='-782' />
    <nd ref='-780' />
    <nd ref='-778' />
    <nd ref='-776' />
    <nd ref='-774' />
    <nd ref='-86' />
    <tag k='line_type' v='exterior' />
  </way>
  <way id='-902' action='modify' visible='true'>
    <nd ref='-772' />
    <nd ref='-768' />
    <nd ref='-766' />
    <nd ref='-764' />
    <nd ref='-762' />
    <nd ref='-760' />
    <nd ref='-758' />
    <nd ref='-756' />
    <nd ref='-754' />
    <nd ref='-752' />
    <nd ref='-750' />
    <nd ref='-748' />
    <nd ref='-746' />
    <nd ref='-744' />
    <nd ref='-742' />
    <nd ref='-740' />
    <nd ref='-738' />
    <nd ref='-736' />
    <nd ref='-734' />
    <nd ref='-732' />
    <nd ref='-730' />
    <nd ref='-728' />
    <nd ref='-770' />
    <tag k='line_type' v='interior' />
  </way>
  <way id='-900' action='modify' visible='true'>
    <nd ref='-696' />
    <nd ref='-698' />
    <nd ref='-700' />
    <nd ref='-702' />
    <nd ref='-704' />
    <nd ref='-706' />
    <nd ref='-708' />
    <nd ref='-710' />
    <nd ref='-712' />
    <nd ref='-714' />
    <nd ref='-716' />
    <nd ref='-718' />
    <nd ref='-720' />
    <nd ref='-722' />
    <nd ref='-724' />
    <nd ref='-726' />
    <tag k='line_type' v='exterior' />
  </way>
  <way id='-898' action='modify' visible='true'>
    <nd ref='-88' />
    <nd ref='-692' />
    <nd ref='-690' />
    <nd ref='-688' />
    <nd ref='-686' />
    <nd ref='-684' />
    <nd ref='-682' />
    <nd ref='-680' />
    <nd ref='-678' />
    <nd ref='-676' />
    <nd ref='-674' />
    <nd ref='-672' />
    <nd ref='-670' />
    <nd ref='-668' />
    <nd ref='-666' />
    <nd ref='-694' />
    <tag k='line_type' v='exterior' />
  </way>
  <way id='-896' action='modify' visible='true'>
    <nd ref='-88' />
    <nd ref='-664' />
    <nd ref='-662' />
    <nd ref='-660' />
    <nd ref='-658' />
    <nd ref='-656' />
    <nd ref='-654' />
    <nd ref='-652' />
    <nd ref='-650' />
    <nd ref='-648' />
    <nd ref='-646' />
    <nd ref='-644' />
    <nd ref='-642' />
    <nd ref='-640' />
    <nd ref='-638' />
    <nd ref='-694' />
  </way>
  <way id='-894' action='modify' visible='true'>
    <nd ref='-636' />
    <nd ref='-634' />
    <nd ref='-632' />
    <nd ref='-630' />
    <nd ref='-628' />
    <nd ref='-626' />
    <nd ref='-624' />
    <nd ref='-622' />
    <nd ref='-620' />
    <nd ref='-618' />
    <nd ref='-616' />
    <nd ref='-614' />
    <nd ref='-612' />
    <nd ref='-610' />
    <nd ref='-608' />
    <nd ref='-150' />
    <tag k='line_type' v='interior' />
  </way>
  <way id='-892' action='modify' visible='true'>
    <nd ref='-194' />
    <nd ref='-556' />
    <nd ref='-558' />
    <nd ref='-560' />
    <nd ref='-562' />
    <nd ref='-564' />
    <nd ref='-566' />
    <nd ref='-568' />
    <nd ref='-570' />
    <nd ref='-572' />
    <nd ref='-574' />
    <nd ref='-576' />
    <nd ref='-578' />
    <nd ref='-580' />
    <nd ref='-582' />
    <nd ref='-584' />
    <nd ref='-586' />
    <nd ref='-588' />
    <nd ref='-590' />
    <nd ref='-592' />
    <nd ref='-594' />
    <nd ref='-596' />
    <nd ref='-598' />
    <nd ref='-600' />
    <nd ref='-602' />
    <nd ref='-604' />
    <nd ref='-606' />
    <nd ref='-162' />
    <tag k='line_type' v='exterior' />
  </way>
  <way id='-890' action='modify' visible='true'>
    <nd ref='-138' />
    <nd ref='-554' />
    <nd ref='-552' />
    <nd ref='-550' />
    <nd ref='-548' />
    <nd ref='-546' />
    <nd ref='-544' />
    <nd ref='-542' />
    <nd ref='-540' />
    <nd ref='-538' />
    <nd ref='-536' />
    <nd ref='-534' />
    <nd ref='-532' />
    <nd ref='-530' />
    <nd ref='-528' />
    <nd ref='-526' />
    <nd ref='-524' />
    <nd ref='-522' />
    <nd ref='-520' />
    <nd ref='-518' />
    <nd ref='-516' />
    <nd ref='-514' />
    <nd ref='-512' />
    <nd ref='-510' />
    <nd ref='-508' />
    <nd ref='-506' />
    <nd ref='-504' />
    <nd ref='-176' />
    <tag k='line_type' v='exterior' />
  </way>
  <way id='-888' action='modify' visible='true'>
    <nd ref='-502' />
    <nd ref='-500' />
    <nd ref='-498' />
    <nd ref='-496' />
    <nd ref='-494' />
    <nd ref='-492' />
    <nd ref='-490' />
    <nd ref='-488' />
    <nd ref='-486' />
    <nd ref='-484' />
    <nd ref='-482' />
    <nd ref='-480' />
    <nd ref='-478' />
    <nd ref='-476' />
    <nd ref='-474' />
    <nd ref='-472' />
    <nd ref='-470' />
    <nd ref='-468' />
    <nd ref='-466' />
    <nd ref='-464' />
    <nd ref='-462' />
    <nd ref='-460' />
    <nd ref='-458' />
    <nd ref='-456' />
    <nd ref='-454' />
    <nd ref='-452' />
    <nd ref='-450' />
    <nd ref='-192' />
    <tag k='line_type' v='interior' />
  </way>
  <way id='-886' action='modify' visible='true'>
    <nd ref='-178' />
    <nd ref='-448' />
    <nd ref='-446' />
    <nd ref='-444' />
    <nd ref='-442' />
    <nd ref='-440' />
    <nd ref='-438' />
    <nd ref='-436' />
    <nd ref='-434' />
    <nd ref='-432' />
    <nd ref='-430' />
    <nd ref='-428' />
    <nd ref='-426' />
    <nd ref='-424' />
    <nd ref='-422' />
    <nd ref='-420' />
    <nd ref='-418' />
    <nd ref='-416' />
    <nd ref='-414' />
    <nd ref='-412' />
    <nd ref='-410' />
    <nd ref='-408' />
    <nd ref='-406' />
    <nd ref='-404' />
    <nd ref='-402' />
    <nd ref='-400' />
    <nd ref='-398' />
    <nd ref='-396' />
    <nd ref='-394' />
    <nd ref='-392' />
    <nd ref='-390' />
    <nd ref='-388' />
    <nd ref='-386' />
    <nd ref='-384' />
    <nd ref='-382' />
    <nd ref='-380' />
    <nd ref='-378' />
    <nd ref='-376' />
    <nd ref='-374' />
    <nd ref='-372' />
    <nd ref='-370' />
    <tag k='line_type' v='exterior' />
  </way>
  <way id='-884' action='modify' visible='true'>
    <nd ref='-66' />
    <nd ref='-290' />
    <nd ref='-292' />
    <nd ref='-294' />
    <nd ref='-296' />
    <nd ref='-298' />
    <nd ref='-300' />
    <nd ref='-302' />
    <nd ref='-304' />
    <nd ref='-306' />
    <nd ref='-308' />
    <nd ref='-310' />
    <nd ref='-312' />
    <nd ref='-314' />
    <nd ref='-316' />
    <nd ref='-318' />
    <nd ref='-320' />
    <nd ref='-322' />
    <nd ref='-324' />
    <nd ref='-326' />
    <nd ref='-328' />
    <nd ref='-330' />
    <nd ref='-332' />
    <nd ref='-334' />
    <nd ref='-336' />
    <nd ref='-338' />
    <nd ref='-340' />
    <nd ref='-342' />
    <nd ref='-344' />
    <nd ref='-346' />
    <nd ref='-348' />
    <nd ref='-350' />
    <nd ref='-352' />
    <nd ref='-354' />
    <nd ref='-356' />
    <nd ref='-358' />
    <nd ref='-360' />
    <nd ref='-362' />
    <nd ref='-364' />
    <nd ref='-366' />
    <nd ref='-368' />
    <tag k='line_type' v='exterior' />
  </way>
  <way id='-882' action='modify' visible='true'>
    <nd ref='-288' />
    <nd ref='-284' />
    <nd ref='-282' />
    <nd ref='-280' />
    <nd ref='-278' />
    <nd ref='-276' />
    <nd ref='-274' />
    <nd ref='-272' />
    <nd ref='-270' />
    <nd ref='-268' />
    <nd ref='-266' />
    <nd ref='-264' />
    <nd ref='-262' />
    <nd ref='-260' />
    <nd ref='-258' />
    <nd ref='-256' />
    <nd ref='-254' />
    <nd ref='-252' />
    <nd ref='-250' />
    <nd ref='-248' />
    <nd ref='-246' />
    <nd ref='-244' />
    <nd ref='-242' />
    <nd ref='-240' />
    <nd ref='-238' />
    <nd ref='-236' />
    <nd ref='-234' />
    <nd ref='-232' />
    <nd ref='-230' />
    <nd ref='-228' />
    <nd ref='-226' />
    <nd ref='-224' />
    <nd ref='-222' />
    <nd ref='-220' />
    <nd ref='-218' />
    <nd ref='-216' />
    <nd ref='-214' />
    <nd ref='-212' />
    <nd ref='-210' />
    <nd ref='-208' />
    <nd ref='-286' />
    <tag k='line_type' v='interior' />
  </way>
  <way id='-880' action='modify' visible='true'>
    <nd ref='-368' />
    <nd ref='-206' />
    <nd ref='-204' />
    <nd ref='-202' />
    <nd ref='-200' />
    <nd ref='-198' />
    <nd ref='-196' />
    <nd ref='-194' />
    <tag k='line_type' v='exterior' />
  </way>
  <way id='-878' action='modify' visible='true'>
    <nd ref='-288' />
    <nd ref='-190' />
    <nd ref='-188' />
    <nd ref='-186' />
    <nd ref='-184' />
    <nd ref='-182' />
    <nd ref='-180' />
    <nd ref='-192' />
  </way>
  <way id='-876' action='modify' visible='true'>
    <nd ref='-176' />
    <nd ref='-164' />
    <nd ref='-166' />
    <nd ref='-168' />
    <nd ref='-170' />
    <nd ref='-172' />
    <nd ref='-174' />
    <nd ref='-178' />
  </way>
  <way id='-874' action='modify' visible='true'>
    <nd ref='-162' />
    <nd ref='-160' />
    <nd ref='-158' />
    <nd ref='-156' />
    <nd ref='-154' />
    <nd ref='-152' />
    <nd ref='-696' />
    <tag k='line_type' v='exterior' />
  </way>
  <way id='-872' action='modify' visible='true'>
    <nd ref='-502' />
    <nd ref='-148' />
    <nd ref='-146' />
    <nd ref='-144' />
    <nd ref='-142' />
    <nd ref='-140' />
    <nd ref='-150' />
  </way>
  <way id='-870' action='modify' visible='true'>
    <nd ref='-694' />
    <nd ref='-128' />
    <nd ref='-130' />
    <nd ref='-132' />
    <nd ref='-134' />
    <nd ref='-136' />
    <nd ref='-138' />
  </way>
  <way id='-868' action='modify' visible='true'>
    <nd ref='-726' />
    <nd ref='-126' />
    <nd ref='-124' />
    <nd ref='-122' />
    <nd ref='-120' />
    <nd ref='-118' />
    <nd ref='-116' />
    <nd ref='-114' />
    <nd ref='-112' />
    <nd ref='-110' />
    <nd ref='-108' />
    <tag k='line_type' v='exterior' />
  </way>
  <way id='-866' action='modify' visible='true'>
    <nd ref='-636' />
    <nd ref='-106' />
    <nd ref='-104' />
    <nd ref='-102' />
    <nd ref='-100' />
    <nd ref='-98' />
    <nd ref='-96' />
    <nd ref='-94' />
    <nd ref='-92' />
    <nd ref='-90' />
    <nd ref='-770' />
  </way>
  <way id='-864' action='modify' visible='true'>
    <nd ref='-86' />
    <nd ref='-68' />
    <nd ref='-70' />
    <nd ref='-72' />
    <nd ref='-74' />
    <nd ref='-76' />
    <nd ref='-78' />
    <nd ref='-80' />
    <nd ref='-82' />
    <nd ref='-84' />
    <nd ref='-88' />
  </way>
  <way id='-862' action='modify' visible='true'>
    <nd ref='-46' />
    <nd ref='-48' />
    <nd ref='-50' />
    <nd ref='-52' />
    <nd ref='-54' />
    <nd ref='-56' />
    <nd ref='-58' />
    <nd ref='-60' />
    <nd ref='-62' />
    <nd ref='-64' />
    <nd ref='-66' />
    <tag k='line_type' v='exterior' />
  </way>
  <way id='-860' action='modify' visible='true'>
    <nd ref='-370' />
    <nd ref='-42' />
    <nd ref='-40' />
    <nd ref='-38' />
    <nd ref='-36' />
    <nd ref='-34' />
    <nd ref='-32' />
    <nd ref='-30' />
    <nd ref='-28' />
    <nd ref='-26' />
    <nd ref='-44' />
  </way>
  <way id='-858' action='modify' visible='true'>
    <nd ref='-286' />
    <nd ref='-24' />
    <nd ref='-22' />
    <nd ref='-20' />
    <nd ref='-18' />
    <nd ref='-16' />
    <nd ref='-14' />
    <nd ref='-12' />
    <nd ref='-10' />
    <nd ref='-8' />
    <nd ref='-772' />
  </way>
  <relation id='-938' action='modify' visible='true'>
    <member type='way' ref='-890' role='right' />
    <member type='way' ref='-888' role='left' />
    <tag k='type' v='lanelet' />
  </relation>
  <relation id='-936' action='modify' visible='true'>
    <member type='way' ref='-892' role='right' />
    <member type='way' ref='-888' role='left' />
    <tag k='type' v='lanelet' />
  </relation>
  <relation id='-934' action='modify' visible='true'>
    <member type='way' ref='-880' role='right' />
    <member type='way' ref='-878' role='left' />
    <tag k='type' v='lanelet' />
  </relation>
  <relation id='-932' action='modify' visible='true'>
    <member type='way' ref='-876' role='right' />
    <member type='way' ref='-878' role='left' />
    <tag k='type' v='lanelet' />
  </relation>
  <relation id='-930' action='modify' visible='true'>
    <member type='way' ref='-886' role='right' />
    <member type='way' ref='-882' role='left' />
    <tag k='type' v='lanelet' />
  </relation>
  <relation id='-928' action='modify' visible='true'>
    <member type='way' ref='-884' role='right' />
    <member type='way' ref='-882' role='left' />
    <tag k='type' v='lanelet' />
  </relation>
  <relation id='-926' action='modify' visible='true'>
    <member type='way' ref='-862' role='right' />
    <member type='way' ref='-858' role='left' />
    <tag k='type' v='lanelet' />
  </relation>
  <relation id='-924' action='modify' visible='true'>
    <member type='way' ref='-860' role='right' />
    <member type='way' ref='-858' role='left' />
    <tag k='type' v='lanelet' />
  </relation>
  <relation id='-922' action='modify' visible='true'>
    <member type='way' ref='-906' role='right' />
    <member type='way' ref='-902' role='left' />
    <tag k='type' v='lanelet' />
  </relation>
  <relation id='-920' action='modify' visible='true'>
    <member type='way' ref='-904' role='right' />
    <member type='way' ref='-902' role='left' />
    <tag k='type' v='lanelet' />
  </relation>
  <relation id='-918' action='modify' visible='true'>
    <member type='way' ref='-866' role='left' />
    <member type='way' ref='-864' role='right' />
    <tag k='type' v='lanelet' />
  </relation>
  <relation id='-916' action='modify' visible='true'>
    <member type='way' ref='-868' role='right' />
    <member type='way' ref='-866' role='left' />
    <tag k='type' v='lanelet' />
  </relation>
  <relation id='-914' action='modify' visible='true'>
    <member type='way' ref='-900' role='right' />
    <member type='way' ref='-894' role='left' />
    <tag k='type' v='lanelet' />
  </relation>
  <relation id='-912' action='modify' visible='true'>
    <member type='way' ref='-896' role='right' />
    <member type='way' ref='-894' role='left' />
    <tag k='type' v='lanelet' />
  </relation>
  <relation id='-910' action='modify' visible='true'>
    <member type='way' ref='-870' role='right' />
    <member type='way' ref='-872' role='left' />
    <tag k='type' v='lanelet' />
  </relation>
  <relation id='-908' action='modify' visible='true'>
    <member type='way' ref='-874' role='right' />
    <member type='way' ref='-872' role='left' />
    <tag k='type' v='lanelet' />
  </relation>
</osm>
